/* XPM */
static char * About_xpm[] = {
"16 16 71 1",
" 	c None",
".	c #A3BDD3",
"+	c #7B9CBD",
"@	c #DBEBF9",
"#	c #DDEEFE",
"$	c #D7EAFD",
"%	c #CCE5FC",
"&	c #C6E1FB",
"*	c #A1CBEF",
"=	c #B7D5F2",
"-	c #EDF6FE",
";	c #9BBDF2",
">	c #00309C",
",	c #C8E0F8",
"'	c #C2DFF9",
")	c #BCDBF8",
"!	c #F4F9FE",
"~	c #C3E0FA",
"{	c #BDDCF8",
"]	c #B6D7F6",
"^	c #EFF7FE",
"/	c #F7FBFE",
"(	c #CDE5FC",
"_	c #E5F2FE",
":	c #ECF5FE",
"<	c #F2F8FE",
"[	c #E5EFF6",
"}	c #ADCFF0",
"|	c #DDEDFE",
"1	c #E9F4FE",
"2	c #DEEEFE",
"3	c #CBE4FC",
"4	c #C1DEF9",
"5	c #BBDAF8",
"6	c #B4D5F5",
"7	c #AACCEE",
"8	c #D4E9FD",
"9	c #DAECFE",
"0	c #DFEEFE",
"a	c #D5E9FE",
"b	c #295ECC",
"c	c #C9E2FB",
"d	c #BEDCF9",
"e	c #B9D9F7",
"f	c #B1D3F3",
"g	c #A6C9EB",
"h	c #C9E3FC",
"i	c #CEE5FD",
"j	c #D0E6FD",
"k	c #D1E7FD",
"l	c #C6E0FA",
"m	c #BAD9F7",
"n	c #ABCEEF",
"o	c #9EC2E5",
"p	c #A9CBEC",
"q	c #C6E2FB",
"r	c #CAE4FC",
"s	c #C3DFFA",
"t	c #B7D7F6",
"u	c #A4C6E9",
"v	c #97BADF",
"w	c #BFDDF8",
"x	c #AFD1F2",
"y	c #95B7DA",
"z	c #8EADDC",
"A	c #82A8E2",
"B	c #80A7E1",
"C	c #88ABDC",
"D	c #9BBFE3",
"E	c #A6C8EB",
"F	c #6F89AB",
"     .....+     ",
"   ..@#$%&*++   ",
"  .=--;>;,')*+  ",
"  .-!!>>>,~{]+  ",
" .=^//;>;(~{]*+ ",
" ._:<[((((~{]}+ ",
" .|_12>>>34567+ ",
" .8900ab>cdefg+ ",
" .hijjkb>lm]no+ ",
" .p&qqrb>stfuv+ ",
"  +=ww>>>>xgy+  ",
"   +pezABCgD+   ",
"    +++pEo++    ",
"       +oo+     ",
"        +o+     ",
"         F+     "};
