/* XPM */
static char * bottom_left_island_xpm[] = {
"16 16 223 2",
"  	c #525BBE",
". 	c #5A63C6",
"+ 	c #6172CE",
"@ 	c #688BE0",
"# 	c #6B94E7",
"$ 	c #6B93E6",
"% 	c #6F97E2",
"& 	c #9FC1B3",
"* 	c #B3CA8D",
"= 	c #5E8528",
"- 	c #457403",
"; 	c #497703",
"> 	c #497603",
", 	c #3C7203",
"' 	c #457503",
") 	c #448409",
"! 	c #5A62C6",
"~ 	c #5F6DCB",
"{ 	c #6680D8",
"] 	c #6A91E5",
"^ 	c #6887DD",
"/ 	c #7096E2",
"( 	c #98AEBD",
"_ 	c #AFC48C",
": 	c #4F7B14",
"< 	c #4C7A03",
"[ 	c #447203",
"} 	c #3F7003",
"| 	c #467503",
"1 	c #4A7A03",
"2 	c #57830B",
"3 	c #5259BC",
"4 	c #565FC2",
"5 	c #5F6BCA",
"6 	c #6378D3",
"7 	c #6784DB",
"8 	c #698DE1",
"9 	c #6B87D8",
"0 	c #8FB7C3",
"a 	c #7FA648",
"b 	c #477603",
"c 	c #447003",
"d 	c #3D6B03",
"e 	c #407303",
"f 	c #4B7A03",
"g 	c #548203",
"h 	c #4F7C0B",
"i 	c #5355AD",
"j 	c #606ECB",
"k 	c #6372CD",
"l 	c #657BD4",
"m 	c #749AE8",
"n 	c #A0B775",
"o 	c #4A780A",
"p 	c #3F6E03",
"q 	c #3E7003",
"r 	c #437103",
"s 	c #437303",
"t 	c #447503",
"u 	c #457603",
"v 	c #4B790B",
"w 	c #5055AD",
"x 	c #575FC3",
"y 	c #5C67C8",
"z 	c #789BEA",
"A 	c #7D974F",
"B 	c #5B7D1B",
"C 	c #3E6D09",
"D 	c #3F6F02",
"E 	c #4A7603",
"F 	c #467703",
"G 	c #477403",
"H 	c #507C0B",
"I 	c #4B50A3",
"J 	c #5761C3",
"K 	c #5760C3",
"L 	c #5B64C7",
"M 	c #6685DD",
"N 	c #6074D1",
"O 	c #8AA4D4",
"P 	c #718858",
"Q 	c #41720F",
"R 	c #618827",
"S 	c #61882C",
"T 	c #507D09",
"U 	c #4A7803",
"V 	c #497705",
"W 	c #4D7A0B",
"X 	c #484D96",
"Y 	c #5459B6",
"Z 	c #5D6DCC",
"` 	c #6277D2",
" .	c #808CBE",
"..	c #8C9D64",
"+.	c #B3BDA3",
"@.	c #B2C795",
"#.	c #AFCA92",
"$.	c #B4B889",
"%.	c #719839",
"&.	c #4A770C",
"*.	c #668228",
"=.	c #4E790F",
"-.	c #484694",
";.	c #444C9A",
">.	c #5860C3",
",.	c #5962C5",
"'.	c #6170CD",
").	c #647AD4",
"!.	c #697FD1",
"~.	c #6781D7",
"{.	c #899ECC",
"].	c #A6B8A9",
"^.	c #BAC1A3",
"/.	c #BBC495",
"(.	c #A0B766",
"_.	c #8FA14F",
":.	c #9CB262",
"<.	c #494E9B",
"[.	c #494D9A",
"}.	c #5156AE",
"|.	c #565EC1",
"1.	c #5D69C9",
"2.	c #6A90E4",
"3.	c #7293DC",
"4.	c #7EA1D3",
"5.	c #9FB8BF",
"6.	c #94B1D3",
"7.	c #A6C5A4",
"8.	c #494999",
"9.	c #464D96",
"0.	c #414A93",
"a.	c #5156B0",
"b.	c #5861C3",
"c.	c #5B64C6",
"d.	c #5F6ECC",
"e.	c #667DD5",
"f.	c #657BD5",
"g.	c #688AE1",
"h.	c #7299E4",
"i.	c #719AEA",
"j.	c #7BA3E7",
"k.	c #494395",
"l.	c #444794",
"m.	c #454694",
"n.	c #494597",
"o.	c #5657B4",
"p.	c #575CB9",
"q.	c #555DB9",
"r.	c #5760C2",
"s.	c #5962C4",
"t.	c #5D68C8",
"u.	c #6276D1",
"v.	c #6372CE",
"w.	c #657CD5",
"x.	c #667ED6",
"y.	c #6D8DE0",
"z.	c #474D9B",
"A.	c #414993",
"B.	c #474794",
"C.	c #4B4EA0",
"D.	c #535AB8",
"E.	c #5A64C5",
"F.	c #585EBC",
"G.	c #6171CD",
"H.	c #657AD3",
"I.	c #6A7FD5",
"J.	c #484996",
"K.	c #404892",
"L.	c #454995",
"M.	c #484E98",
"N.	c #454894",
"O.	c #474A99",
"P.	c #4E4FA3",
"Q.	c #535EB9",
"R.	c #545CC0",
"S.	c #555DC0",
"T.	c #6777CF",
"U.	c #444994",
"V.	c #444894",
"W.	c #474897",
"X.	c #444A94",
"Y.	c #414892",
"Z.	c #454A97",
"`.	c #484999",
" +	c #454999",
".+	c #4A52A8",
"++	c #5358B6",
"@+	c #525ABD",
"#+	c #545DC0",
"$+	c #5963C6",
"%+	c #5861C4",
"&+	c #5F68C8",
"*+	c #464996",
"=+	c #474C99",
"-+	c #484595",
";+	c #474998",
">+	c #454996",
",+	c #464D9A",
"'+	c #494899",
")+	c #474899",
"!+	c #454997",
"~+	c #424A95",
"{+	c #4D51AA",
"]+	c #5054AE",
"^+	c #575EBE",
"/+	c #525ABB",
"(+	c #575FBD",
"_+	c #4B4C9A",
":+	c #4A4B9A",
"<+	c #4C4D9B",
"[+	c #4A4897",
"}+	c #4A4797",
"|+	c #424994",
"1+	c #4B4796",
"2+	c #4D4F99",
"3+	c #4A4D99",
"4+	c #4A4998",
"5+	c #484795",
"6+	c #4A4A98",
"7+	c #4A4E99",
"8+	c #494A99",
"9+	c #484597",
"0+	c #4D4E9D",
"  . + @ # $ % & * = - ; > , ' ) ",
"  ! ~ { ] ^ / ( _ : < [ } | 1 2 ",
"3 4 5 6 7 8 9 0 a b c d e f g h ",
"i 4 j 5 k l m n o p q r s t u v ",
"w ! x y 6 l z A B C D E F | G H ",
"I J K L M N O P Q R S T U > V W ",
"X Y K K Z `  ...+.@.#.$.%.&.*.=.",
"-.;.>.>.,.'.).!.~.{.].^./.(._.:.",
"<.[.}.|.|.,.y j 1.2.$ 3.4.5.6.7.",
"8.9.0.a.,.|.b.c.. d.e.f.g.h.i.j.",
"k.l.m.n.o.p.q.r.s.5 t.u.v.w.x.y.",
"z.8.A.B.C.D.J E.F.y 1.1.G.H.l I.",
"J.K.L.M.N.O.P.Q.R.S.4 y 5 L t.T.",
"U.V.W.X.Y.Z.`. +.+++@+#+$+%+. &+",
"*+=+-+;+>+,+'+)+!+>+~+{+]+^+/+(+",
"_+:+<+[+}+|+1+2+3+4+5+6+7+8+9+0+"};
