/* XPM */
static char * bottom_left_valley_xpm[] = {
"16 16 176 2",
"  	c None",
". 	c #69411A",
"+ 	c #6D451E",
"@ 	c #5F3D17",
"# 	c #5F5814",
"$ 	c #598C0E",
"% 	c #588B09",
"& 	c #3F7202",
"* 	c #629511",
"= 	c #548707",
"- 	c #5C8F0D",
"; 	c #558806",
"> 	c #538605",
", 	c #649716",
"' 	c #568908",
") 	c #6D441D",
"! 	c #573B15",
"~ 	c #41320D",
"{ 	c #4C3711",
"] 	c #232E07",
"^ 	c #537809",
"/ 	c #548708",
"( 	c #5B8E0E",
"_ 	c #5F9212",
": 	c #497C02",
"< 	c #528507",
"[ 	c #487B04",
"} 	c #497C04",
"| 	c #4F8206",
"1 	c #4A7D04",
"2 	c #548709",
"3 	c #976E43",
"4 	c #69421B",
"5 	c #513510",
"6 	c #322E0A",
"7 	c #4D340F",
"8 	c #194000",
"9 	c #508306",
"0 	c #618824",
"a 	c #7B8B63",
"b 	c #508108",
"c 	c #548705",
"d 	c #558807",
"e 	c #5C8F0C",
"f 	c #5D9010",
"g 	c #56890B",
"h 	c #90673D",
"i 	c #826140",
"j 	c #603913",
"k 	c #362F0B",
"l 	c #082402",
"m 	c #477707",
"n 	c #99A783",
"o 	c #E0E0E0",
"p 	c #728B4C",
"q 	c #518406",
"r 	c #4A7D03",
"s 	c #528505",
"t 	c #4A7D01",
"u 	c #56890A",
"v 	c #8B6F55",
"w 	c #8B745D",
"x 	c #2A2C08",
"y 	c #1B2805",
"z 	c #596C50",
"A 	c #CFCFCF",
"B 	c #DCDCDC",
"C 	c #AAAAAA",
"D 	c #59801F",
"E 	c #558809",
"F 	c #568909",
"G 	c #598C0B",
"H 	c #5A8D0C",
"I 	c #598C09",
"J 	c #8F6E4D",
"K 	c #886F57",
"L 	c #725232",
"M 	c #49330E",
"N 	c #2E3B18",
"O 	c #CAC7C4",
"P 	c #F2EBE4",
"Q 	c #DBD1C6",
"R 	c #ADA399",
"S 	c #857F55",
"T 	c #527E08",
"U 	c #5C8F0E",
"V 	c #4B7E07",
"W 	c #649713",
"X 	c #558808",
"Y 	c #5F9210",
"Z 	c #4E8106",
"` 	c #6E962D",
" .	c #999685",
"..	c #DED8D3",
"+.	c #D8C4AF",
"@.	c #C8AF94",
"#.	c #97826E",
"$.	c #6C4723",
"%.	c #5C6B13",
"&.	c #4D8002",
"*.	c #5B8E0D",
"=.	c #4B7E05",
"-.	c #5D900E",
";.	c #508307",
">.	c #8A8A5E",
",.	c #B8A089",
"'.	c #AF9477",
").	c #BC9973",
"!.	c #A57F57",
"~.	c #663E18",
"{.	c #6A421B",
"].	c #5F3F12",
"^.	c #598C0A",
"/.	c #528501",
"(.	c #467902",
"_.	c #538609",
":.	c #5E8021",
"<.	c #A48B73",
"[.	c #9A8067",
"}.	c #8D663E",
"|.	c #5D5710",
"1.	c #538608",
"2.	c #417401",
"3.	c #588B0D",
"4.	c #557D15",
"5.	c #908567",
"6.	c #977758",
"7.	c #805F40",
"8.	c #8A7056",
"9.	c #764F29",
"0.	c #212D06",
"a.	c #557908",
"b.	c #7E8F65",
"c.	c #598A0E",
"d.	c #878A54",
"e.	c #96816F",
"f.	c #9F8770",
"g.	c #88623D",
"h.	c #9C744B",
"i.	c #B98F61",
"j.	c #143B00",
"k.	c #5A8D11",
"l.	c #6A912D",
"m.	c #7E8C5F",
"n.	c #907862",
"o.	c #886A4E",
"p.	c #8A6A4A",
"q.	c #9E7A55",
"r.	c #B58D62",
"s.	c #4E7F0B",
"t.	c #9CAB86",
"u.	c #998571",
"v.	c #997652",
"w.	c #BF986E",
"x.	c #C69C6D",
"y.	c #855C33",
"z.	c #607353",
"A.	c #947E68",
"B.	c #A98055",
"C.	c #B3895B",
"D.	c #C09667",
"E.	c #B28C63",
"F.	c #5C6B18",
"G.	c #5A8D0A",
"H.	c #4B7E02",
"I.	c #4D8003",
"J.	c #558805",
"K.	c #60881F",
"L.	c #969383",
"M.	c #604113",
"N.	c #588B0B",
"O.	c #528509",
"P.	c #679A16",
"Q.	c #4F8203",
"R.	c #568906",
"S.	c #8B8A5F",
". . + @ # $ % & * = - ; = > , ' ",
") ! ~ { ] ^ / ( _ : < [ } | 1 2 ",
"3 4 5 6 7 8 9 0 a b c d * e f g ",
"h i j j k l m n o p q r s t r u ",
"v w j j x y z A B C D E F G H I ",
"J K L j M N O P Q R S T _ U V W ",
"X Y Z r `  ...+.@.#.$.%.= &.- = ",
"*.=.-.;.>.,.'.).!.~.{.].; ^./.(.",
"_.| - :.<.[.}.. . . + @ |.X 1.= ",
"2.3.4.5.6.7.8.9.) ! ~ { 0.a.=.E ",
"b.c.d.e.f.g.h.i.3 4 5 6 7 j.k.l.",
"o m.n.o.p.q.r.i.h i j j k l s.t.",
"B C u.v.w.x.x.y.v w j j x y z.A ",
"Q R A.B.C.D.E.!.J K L j M N O P ",
"@.#.$.F.F / G.H.G I.H J.K.L...+.",
"!.~.{.M.N.O.s 9 c P.Q.R.S.,.'.)."};
