/* XPM */
static char * clock_xpm[] = {
"16 16 161 2",
"  	c None",
". 	c #6B4F13",
"+ 	c #836A30",
"@ 	c #927A42",
"# 	c #5D3F01",
"$ 	c #9A8451",
"% 	c #E8BF62",
"& 	c #DA9F1B",
"* 	c #C67F00",
"= 	c #DDC281",
"- 	c #5C3E01",
"; 	c #795A19",
"> 	c #E3C070",
", 	c #C88700",
"' 	c #C89B37",
") 	c #F0DBAC",
"! 	c #B0ADAB",
"~ 	c #B3B1AC",
"{ 	c #EFDAAA",
"] 	c #C59A36",
"^ 	c #C78700",
"/ 	c #5A3D01",
"( 	c #E4C171",
"_ 	c #BA7B00",
": 	c #EBD5A8",
"< 	c #B7BECF",
"[ 	c #E7EBF4",
"} 	c #A1A3A8",
"| 	c #A2A4A9",
"1 	c #F3F7FF",
"2 	c #C5CDDE",
"3 	c #EAD4A7",
"4 	c #B77800",
"5 	c #E4C071",
"6 	c #97804B",
"7 	c #EAD5A9",
"8 	c #D2D8E3",
"9 	c #EBECEF",
"0 	c #FFFFFF",
"a 	c #EEEFF2",
"b 	c #FBFFFF",
"c 	c #EAD5A6",
"d 	c #C68400",
"e 	c #664B11",
"f 	c #E7B853",
"g 	c #C5993A",
"h 	c #B7BECE",
"i 	c #DFE0E2",
"j 	c #BEBEBE",
"k 	c #DBDBDB",
"l 	c #FDFDFD",
"m 	c #EDEEF0",
"n 	c #D5DCED",
"o 	c #BF9335",
"p 	c #E7B852",
"q 	c #7B6026",
"r 	c #DA9D13",
"s 	c #EDD8AD",
"t 	c #CDD0D8",
"u 	c #F1F1F1",
"v 	c #505050",
"w 	c #676767",
"x 	c #DEDEDE",
"y 	c #2B2B2B",
"z 	c #E9D5A7",
"A 	c #DAA11D",
"B 	c #7C6128",
"C 	c #866B2F",
"D 	c #C17E00",
"E 	c #ACACA8",
"F 	c #8A8C91",
"G 	c #ECECEC",
"H 	c #F0F0F0",
"I 	c #D2D2D2",
"J 	c #353535",
"K 	c #161616",
"L 	c #E2E2E2",
"M 	c #A8AAAE",
"N 	c #B4B1A9",
"O 	c #C99217",
"P 	c #897039",
"Q 	c #84682A",
"R 	c #AD7301",
"S 	c #ABAAA7",
"T 	c #8D8F93",
"U 	c #E0E0E0",
"V 	c #F2F2F2",
"W 	c #CBCBCB",
"X 	c #B3AFA4",
"Y 	c #D6AA48",
"Z 	c #876C33",
"` 	c #74591C",
" .	c #C2890A",
"..	c #E8D5AC",
"+.	c #DEE2E9",
"@.	c #E4E4E4",
"#.	c #E7E7E7",
"$.	c #EDEDED",
"%.	c #F3F3F3",
"&.	c #F9F9F9",
"*.	c #E4CD9B",
"=.	c #F7DB9F",
"-.	c #75591E",
";.	c #5E440B",
">.	c #E3AB2E",
",.	c #BA943D",
"'.	c #C2CADA",
").	c #DCDEE0",
"!.	c #EEEEEE",
"~.	c #F5F5F5",
"{.	c #FCFCFC",
"].	c #F6F7FA",
"^.	c #D6DBE6",
"/.	c #C19F53",
"(.	c #FCE4AF",
"_.	c #927025",
":.	c #C48300",
"<.	c #E4D2AA",
"[.	c #F8FDFF",
"}.	c #EBECEE",
"|.	c #E3E3E3",
"1.	c #DFC793",
"2.	c #F5E4BF",
"3.	c #896B2A",
"4.	c #523601",
"5.	c #DDA52A",
"6.	c #AA7300",
"7.	c #E3D1A5",
"8.	c #D4DAE8",
"9.	c #A8AAAF",
"0.	c #D6DAE3",
"a.	c #DFC996",
"b.	c #E8D9B6",
"c.	c #F8DB9D",
"d.	c #503301",
"e.	c #6B4A08",
"f.	c #E2AE3E",
"g.	c #D1A033",
"h.	c #B8974C",
"i.	c #E1CB97",
"j.	c #AFA897",
"k.	c #AEA794",
"l.	c #E0CA94",
"m.	c #C7AD70",
"n.	c #FFFBEE",
"o.	c #EEC874",
"p.	c #694600",
"q.	c #4E3301",
"r.	c #7F5D14",
"s.	c #F4CD76",
"t.	c #FCE7B5",
"u.	c #F6E5C0",
"v.	c #FCEED1",
"w.	c #FFFFFC",
"x.	c #FADE9F",
"y.	c #806119",
"z.	c #4C3001",
"A.	c #563E05",
"B.	c #654809",
"C.	c #70510C",
"D.	c #735511",
"          . + @ @ + .           ",
"      # $ % & * * & % = -       ",
"    ; > , ' ) ! ~ { ] ^ > ;     ",
"  / ( _ : < [ } | 1 2 3 4 5 /   ",
"  6 , 7 8 9 0 0 0 0 a b c d 6   ",
"e f g h i 0 0 0 j k l m n o p e ",
"q r s t u v w x y 0 l 0 0 z A B ",
"C D E F G H I J K 0 l L M N O P ",
"Q R S T U L V 0 W 0 0 L M X Y Z ",
"`  ...+.@.#.$.%.&.0 0 0 0 *.=.-.",
";.>.,.'.).!.~.{.0 0 0 ].^./.(.;.",
"  _.:.<.[.}.0 |.L 0 ].0 1.2.3.  ",
"  4.5.6.7.8.0 9.M 0 0.a.b.c.d.  ",
"    e.f.g.h.i.j.k.l.m.n.o.p.    ",
"      q.r.s.t.u.v.w.x.y.z.      ",
"          A.B.C.D.B.A.          "};
