/* XPM */
static char * delete_object_xpm[] = {
"16 16 8 1",
" 	c None",
".	c #FE0202",
"+	c #FE6E6E",
"@	c #F99D90",
"#	c #FE7E7A",
"$	c #820202",
"%	c #F98D7F",
"&	c #FE5555",
"                ",
"                ",
"  .+       @#.  ",
"  $.+     %..$  ",
"   $.+   %..$   ",
"    $.&  ..$    ",
"     $....$     ",
"      $..$      ",
"      &...      ",
"     &.$$.&%    ",
"    +.$  $.&%   ",
"   +.$    $.&   ",
"  %.$      $.&  ",
"  .$        $.  ",
"                ",
"                "};
