/* XPM */
static char *eraser_xpm[] = {
/* columns rows colors chars-per-pixel */
"16 16 119 2",
"-  c #D4947F",
"`  c #D9D9D9",
"U  c #CFCECE",
"5  c #EB3E15",
"=  c #F9AD9F",
"5. c #645F5E",
"Q  c #C9581F",
"z  c #FF481A",
"A  c #F57853",
"0  c #E78263",
"H  c #804226",
"^  c #D7D6D6",
"O. c #EBE9E9",
"%. c #B84F22",
".  c #DDA682",
"6. c #9E9E9E",
"*. c #CBCBCB",
"a  c #DADADA",
"h  c #EC3600",
"3  c #EE715A",
"1  c #F48B75",
"$. c #F63B03",
"=. c #C4C4C4",
"4  c #F3693F",
"1. c #D3D3D3",
"x  c #FF3000",
"n  c #F1F1F1",
"e  c #ED4000",
"F  c #FF2D00",
",  c #F9BEAB",
"4. c #AEAEAE",
"b  c #BDBDBD",
"!  c #894822",
"E  c #F93C03",
"M  c #C2C1C1",
"_  c #DBDBDB",
"@. c #D1D0D0",
"l  c #EE5933",
"2  c #FF9467",
"Y  c #BDB7B4",
"Z  c #F35421",
"]  c #F04109",
"k  c #EE4400",
"p  c #7F3A21",
"R  c #ED6F45",
"P  c #CAC9C9",
"<  c #EAA397",
":. c #D9D8D8",
"+. c #E3E0E0",
"u  c #FF5027",
"d  c #CA4725",
"7  c #783925",
"<. c #A0A0A0",
"o  c #F1CDC0",
"2. c #EBEBEB",
"C  c #F33F07",
"@  c #C18465",
"|  c #7B7B7B",
"&  c #FAB9AE",
"G  c #DB3B12",
"#. c #D3A08F",
".. c #C6C6C6",
"[  c #FF3800",
"K  c #D5D5D5",
"   c None",
"s  c #CDBEBB",
"+  c #F4CEC4",
"f  c #FF3500",
"}  c #C16623",
"v  c #833F23",
"D  c #FF3200",
"V  c #E14C1F",
">  c #DBABA0",
"L  c #D3D2D2",
"%  c #EFBEB5",
"y  c #E5340B",
"~  c #7C7C7C",
"B  c #AC7B6C",
"O  c #FADCD5",
"8. c #9A9A9A",
"j  c #FB3500",
"m  c #CCCBCB",
":  c #844F49",
"3. c #EAE9E9",
",. c #904529",
"'  c #D2A79A",
">. c #B48678",
"(  c #CFCFCF",
";  c #874A32",
"J  c #7D7D7D",
"$  c #F8CABB",
"&. c #945328",
"X  c #B27756",
"N  c #BEBDBD",
")  c #DCDBDB",
"6  c #D63F1D",
"i  c #FE2D02",
"9  c #F0B0A2",
"S  c #FF3D07",
"T  c #C4907B",
"7. c #D0D0D0",
"q  c #EF502A",
";. c #E4E3E3",
"*  c #F8B8A6",
"r  c #E92A00",
"8  c #B38172",
"#  c #C79482",
"/  c #BFBEBE",
"I  c #CECDCD",
"-. c #E7E7E7",
"w  c #EA3703",
"c  c #FF2B00",
"W  c #FD3100",
"t  c #FF5100",
"o. c #D1D1D1",
" . c #E0E0E0",
"{  c #E44613",
"X. c #BBBBBB",
"g  c #FE3800",
/* pixels */
"                                ",
"                    .           ",
"                X o O + @       ",
"              # $ % & * = - ;   ",
"          : > , < 1 2 3 4 5 6 7 ",
"        8 9 0 q w e r t y u i p ",
"      a s d f g h j k l z x c v ",
"  b n m M N B V C Z A S D F G H ",
"J K L P I U U Y T R E f W Q !   ",
"~ ^ / ( a ) _ ` ' ] [ { }       ",
"|  ...X.o.O.+.@.#.$.%.&.        ",
"  *.` =.m -.;.:.>.,.            ",
"    <.b 1.2.3.4.5.              ",
"        6.7.8.                  ",
"                                ",
"                                "
};
