/* XPM */
static char * fixed_selection_xpm[] = {
"16 16 6 1",
" 	c None",
".	c #000000",
"+	c #2557FF",
"@	c #B1FFFF",
"#	c #8EFFFF",
"$	c #25AAFF",
"................",
".     .        .",
".     .+       .",
".     .@+      .",
".     .#@+     .",
". .+++.##@+    .",
". .+##@#$#@+   .",
". .+$$$$$$#@+  .",
". .+++++$$+.   .",
". .....+$+.    .",
".     .++.     .",
".     .+.      .",
".     ..       .",
".     .        .",
".              .",
"................"};
