/* XPM */
static char * health_5_xpm[] = {
"16 16 2 1",
" 	c None",
".	c #FFAA00",
"                ",
"                ",
"                ",
"                ",
"                ",
"................",
"......         .",
"......         .",
"......         .",
"......         .",
"................",
"                ",
"                ",
"                ",
"                ",
"                "};
