/* XPM */
static char * information_xpm[] = {
"16 16 142 2",
"  	c None",
". 	c #4C92D2",
"+ 	c #458CCD",
"@ 	c #418BCB",
"# 	c #408BC9",
"$ 	c #4991D1",
"% 	c #6AA0D0",
"& 	c #A0BFE0",
"* 	c #AEC5E3",
"= 	c #9FBCDF",
"- 	c #6297C8",
"; 	c #357DBD",
"> 	c #478DCF",
", 	c #8CB2D9",
"' 	c #B8CDE6",
") 	c #9DBAE0",
"! 	c #85ABD7",
"~ 	c #82A9D6",
"{ 	c #91B3D9",
"] 	c #ABC2E1",
"^ 	c #86AED4",
"/ 	c #356BB1",
"( 	c #478ECE",
"_ 	c #B3CAE6",
": 	c #7DA9D6",
"< 	c #79A5D1",
"[ 	c #A8C4E2",
"} 	c #A8C3E1",
"| 	c #76A2D0",
"1 	c #77A4D1",
"2 	c #A2BDDD",
"3 	c #85ACD0",
"4 	c #3566AB",
"5 	c #689CCD",
"6 	c #B4CBE7",
"7 	c #7AA5D4",
"8 	c #77A0D0",
"9 	c #749ECF",
"0 	c #F5F8FB",
"a 	c #719ECB",
"b 	c #719DCB",
"c 	c #77A1CD",
"d 	c #A5C0DF",
"e 	c #5B8AB9",
"f 	c #418ECB",
"g 	c #9FBCE0",
"h 	c #93B3DB",
"i 	c #75A0CF",
"j 	c #729ECD",
"k 	c #719CCB",
"l 	c #A3BFDD",
"m 	c #A2BFDD",
"n 	c #6B99C5",
"o 	c #6B98C4",
"p 	c #85ABD1",
"q 	c #97BAD8",
"r 	c #35569E",
"s 	c #3B85C5",
"t 	c #B0C9E4",
"u 	c #7AA3D0",
"v 	c #719DCC",
"w 	c #6C9AC7",
"x 	c #6B98C5",
"y 	c #FFFFFF",
"z 	c #FEFFFF",
"A 	c #6996C3",
"B 	c #6894C1",
"C 	c #6894C2",
"D 	c #6D98C3",
"E 	c #ABC5DF",
"F 	c #345395",
"G 	c #357EBF",
"H 	c #AFC7E3",
"I 	c #6A97C4",
"J 	c #6996C4",
"K 	c #D4E0EE",
"L 	c #F4F7FB",
"M 	c #6690BF",
"N 	c #658FBE",
"O 	c #648FBE",
"P 	c #6992BE",
"Q 	c #AAC6DF",
"R 	c #345092",
"S 	c #357EBC",
"T 	c #9CBCDB",
"U 	c #89ADD5",
"V 	c #6C98C7",
"W 	c #6995C3",
"X 	c #6793C1",
"Y 	c #D3DFED",
"Z 	c #F4F7FA",
"` 	c #638BBB",
" .	c #638AB9",
"..	c #628AB8",
"+.	c #789DC5",
"@.	c #93B8D2",
"#.	c #355190",
"$.	c #5E91BF",
"%.	c #A8C2E0",
"&.	c #6C96C5",
"*.	c #6991C2",
"=.	c #B8CBE1",
"-.	c #FCFDFE",
";.	c #D0DCEA",
">.	c #5E85B4",
",.	c #5E85B3",
"'.	c #99B5D4",
").	c #567BAE",
"!.	c #3569AB",
"~.	c #81AACF",
"{.	c #A2BCDA",
"].	c #6691BE",
"^.	c #628CBA",
"/.	c #5F89B7",
"(.	c #5E84B3",
"_.	c #5D83B1",
":.	c #5C83B0",
"<.	c #8DAACD",
"[.	c #79A5C6",
"}.	c #345089",
"|.	c #33559F",
"1.	c #7DA7CB",
"2.	c #9FBBD8",
"3.	c #779CC3",
"4.	c #628AB6",
"5.	c #6086B4",
"6.	c #7296BE",
"7.	c #97B3D1",
"8.	c #77A3C5",
"9.	c #354F84",
"0.	c #345599",
"a.	c #5780B2",
"b.	c #93B7D5",
"c.	c #A6C3DB",
"d.	c #A6C3DA",
"e.	c #90B4D2",
"f.	c #527AAB",
"g.	c #344F86",
"h.	c #345292",
"i.	c #34508A",
"j.	c #344F88",
"k.	c #355089",
"                                ",
"            . + @ #             ",
"        $ % & * * = - ;         ",
"      > , ' ) ! ~ { ] ^ /       ",
"    ( , _ : < [ } | 1 2 3 4     ",
"    5 6 7 8 9 0 0 a b c d e     ",
"  f g h i j k l m n n o p q r   ",
"  s t u v w x y z A B C D E F   ",
"  G H | n I J K L M N O P Q R   ",
"  S T U V W X Y Z `  ...+.@.#.  ",
"    $.%.&.*.=.-.z ;.>.,.'.).    ",
"    !.~.{.].^./.(._.:.<.[.}.    ",
"      |.1.2.3.4.5.6.7.8.9.      ",
"        0.a.b.c.d.e.f.g.        ",
"            h.i.j.k.            ",
"                                "};
