/* XPM */
static char * top_mount_xpm[] = {
"16 16 173 2",
"  	c None",
". 	c #69411A",
"+ 	c #6D451E",
"@ 	c #5F3D17",
"# 	c #5F5814",
"$ 	c #598C0E",
"% 	c #588B09",
"& 	c #3F7202",
"* 	c #629511",
"= 	c #548707",
"- 	c #5C8F0D",
"; 	c #678922",
"> 	c #A48B73",
", 	c #9A8067",
"' 	c #8D663E",
") 	c #6D441D",
"! 	c #573B15",
"~ 	c #41320D",
"{ 	c #4C3711",
"] 	c #232E07",
"^ 	c #537809",
"/ 	c #548708",
"( 	c #5B8E0E",
"_ 	c #5F9212",
": 	c #497C02",
"< 	c #5A8217",
"[ 	c #918668",
"} 	c #977758",
"| 	c #805F40",
"1 	c #8A7056",
"2 	c #764F29",
"3 	c #976E43",
"4 	c #69421B",
"5 	c #513510",
"6 	c #322E0A",
"7 	c #4D340F",
"8 	c #194000",
"9 	c #508306",
"0 	c #618824",
"a 	c #7B8B63",
"b 	c #508108",
"c 	c #838651",
"d 	c #96816F",
"e 	c #9F8770",
"f 	c #88623D",
"g 	c #9C744B",
"h 	c #B98F61",
"i 	c #90673D",
"j 	c #826140",
"k 	c #603913",
"l 	c #362F0B",
"m 	c #082402",
"n 	c #477707",
"o 	c #99A783",
"p 	c #E0E0E0",
"q 	c #7D8A5E",
"r 	c #907862",
"s 	c #886A4E",
"t 	c #8A6A4A",
"u 	c #9E7A55",
"v 	c #B58D62",
"w 	c #8B6F55",
"x 	c #8B745D",
"y 	c #2A2C08",
"z 	c #1B2805",
"A 	c #596C50",
"B 	c #CFCFCF",
"C 	c #DCDCDC",
"D 	c #AAAAAA",
"E 	c #998571",
"F 	c #997652",
"G 	c #BF986E",
"H 	c #C69C6D",
"I 	c #855C33",
"J 	c #8F6E4D",
"K 	c #886F57",
"L 	c #725232",
"M 	c #49330E",
"N 	c #2E3B18",
"O 	c #CAC7C4",
"P 	c #F2EBE4",
"Q 	c #DBD1C6",
"R 	c #ADA399",
"S 	c #947E68",
"T 	c #A98055",
"U 	c #B3895B",
"V 	c #C09667",
"W 	c #B28C63",
"X 	c #A57F57",
"Y 	c #558808",
"Z 	c #5F9210",
"` 	c #4E8106",
" .	c #4A7D03",
"..	c #6E962D",
"+.	c #999685",
"@.	c #DED8D3",
"#.	c #D8C4AF",
"$.	c #C8AF94",
"%.	c #97826E",
"&.	c #6C4723",
"*.	c #5C6B13",
"=.	c #4D8002",
"-.	c #5B8E0D",
";.	c #4B7E05",
">.	c #5D900E",
",.	c #508307",
"'.	c #8A8A5E",
").	c #B8A089",
"!.	c #AF9477",
"~.	c #BC9973",
"{.	c #663E18",
"].	c #6A421B",
"^.	c #5F3F12",
"/.	c #558806",
"(.	c #598C0A",
"_.	c #528501",
":.	c #467902",
"<.	c #538609",
"[.	c #4F8206",
"}.	c #5E8021",
"|.	c #5D5710",
"1.	c #538608",
"2.	c #417401",
"3.	c #588B0D",
"4.	c #557D15",
"5.	c #908567",
"6.	c #212D06",
"7.	c #557908",
"8.	c #558809",
"9.	c #578A09",
"0.	c #878A54",
"a.	c #143B00",
"b.	c #5A8D11",
"c.	c #629512",
"d.	c #638B1C",
"e.	c #4E7F0B",
"f.	c #4D8005",
"g.	c #598A0A",
"h.	c #96914F",
"i.	c #AF9171",
"j.	c #1B4204",
"k.	c #477902",
"l.	c #9E954E",
"m.	c #AD865C",
"n.	c #0C3002",
"o.	c #002200",
"p.	c #1B4201",
"q.	c #477A03",
"r.	c #508304",
"s.	c #54870A",
"t.	c #568909",
"u.	c #5A8D0A",
"v.	c #4B7E02",
"w.	c #598C0B",
"x.	c #4D8003",
"y.	c #5A8D0C",
"z.	c #558805",
"A.	c #558807",
"B.	c #487B04",
"C.	c #487B03",
"D.	c #4B7E03",
"E.	c #4E8104",
"F.	c #6C9F1B",
"G.	c #51840B",
"H.	c #588B0B",
"I.	c #528509",
"J.	c #528505",
"K.	c #548705",
"L.	c #679A16",
"M.	c #4F8203",
"N.	c #568906",
"O.	c #5D900F",
"P.	c #5B8E0B",
". . + @ # $ % & * = - ; > , ' . ",
") ! ~ { ] ^ / ( _ : < [ } | 1 2 ",
"3 4 5 6 7 8 9 0 a b c d e f g h ",
"i j k k l m n o p q r s t u v h ",
"w x k k y z A B C D E F G H H I ",
"J K L k M N O P Q R S T U V W X ",
"Y Z `  ...+.@.#.$.%.&.*.= =.- = ",
"-.;.>.,.'.).!.~.X {.].^./.(._.:.",
"<.[.- }.> , ' . . . + @ |.Y 1.= ",
"2.3.4.5.} | 1 2 ) ! ~ { 6.7.;.8.",
"% 9.0.d e f g h 3 4 5 6 7 a.b.c.",
"2.d.r s t u v h i j k k l m e.f.",
"g.h.i.F G H H I w x k k y z j.k.",
"l.i.i.m.U V W X J K L k M n.o.p.",
"(.q.r.s.t./ u.v.w.x.y.z.A.B.C.<.",
"D.E.F.G.H.I.J.9 K.L.M.N.O.9.P.u."};
