/* XPM */
static char * top_left_lake_xpm[] = {
"16 16 210 2",
"  	c #497803",
". 	c #447403",
"+ 	c #427003",
"@ 	c #407003",
"# 	c #467303",
"$ 	c #477303",
"% 	c #376903",
"& 	c #396B03",
"* 	c #3B6E03",
"= 	c #487503",
"- 	c #477603",
"; 	c #4D7803",
"> 	c #3E6C03",
", 	c #396903",
"' 	c #3C7609",
") 	c #457303",
"! 	c #437103",
"~ 	c #477503",
"{ 	c #497603",
"] 	c #3D6D03",
"^ 	c #3D6E03",
"/ 	c #3F7303",
"( 	c #4D7A03",
"_ 	c #477703",
": 	c #457403",
"< 	c #4A7803",
"[ 	c #437203",
"} 	c #4C760B",
"| 	c #457603",
"1 	c #4B7A03",
"2 	c #4C7603",
"3 	c #4B7903",
"4 	c #406E03",
"5 	c #427203",
"6 	c #3E7103",
"7 	c #4D7C03",
"8 	c #528003",
"9 	c #4A7903",
"0 	c #4C7A03",
"a 	c #447103",
"b 	c #4D7C0B",
"c 	c #4A7603",
"d 	c #466F03",
"e 	c #3E6E03",
"f 	c #3C6E03",
"g 	c #427303",
"h 	c #437403",
"i 	c #528103",
"j 	c #588303",
"k 	c #4E7C03",
"l 	c #447303",
"m 	c #4D780B",
"n 	c #497403",
"o 	c #426F03",
"p 	c #416E03",
"q 	c #487403",
"r 	c #477403",
"s 	c #527E10",
"t 	c #407103",
"u 	c #467503",
"v 	c #3C6F03",
"w 	c #4E780B",
"x 	c #457203",
"y 	c #3F6E03",
"z 	c #406C03",
"A 	c #477003",
"B 	c #446E03",
"C 	c #4C7703",
"D 	c #437406",
"E 	c #698E36",
"F 	c #487603",
"G 	c #407203",
"H 	c #4A7504",
"I 	c #457503",
"J 	c #48770B",
"K 	c #477103",
"L 	c #3B6C03",
"M 	c #427005",
"N 	c #96AB47",
"O 	c #A8B770",
"P 	c #9BB66E",
"Q 	c #9EB591",
"R 	c #A0B479",
"S 	c #A7BB80",
"T 	c #95AE64",
"U 	c #4F7B0A",
"V 	c #4D7C0A",
"W 	c #417003",
"X 	c #426E03",
"Y 	c #3E6E02",
"Z 	c #638B26",
"` 	c #CAC5B4",
" .	c #C7CDC6",
"..	c #9AB5E1",
"+.	c #C4BFB5",
"@.	c #DDCB8F",
"#.	c #C0C98F",
"$.	c #D4D6CE",
"%.	c #B3C194",
"&.	c #588014",
"*.	c #6D912D",
"=.	c #407403",
"-.	c #507D03",
";.	c #4F8002",
">.	c #5E8819",
",.	c #D9D5B3",
"'.	c #95B2E0",
").	c #77A2F0",
"!.	c #809FD1",
"~.	c #79A2EF",
"{.	c #A7B9BC",
"].	c #ADBD6B",
"^.	c #DECC8D",
"/.	c #C2C5A1",
"(.	c #CACDAE",
"_.	c #4B7C03",
":.	c #4E7D03",
"<.	c #638A34",
"[.	c #648D2A",
"}.	c #D7D5C8",
"|.	c #ADB9C9",
"1.	c #6993DC",
"2.	c #4A752E",
"3.	c #5D83A5",
"4.	c #657EDB",
"5.	c #89A6D0",
"6.	c #C8D1D6",
"7.	c #99B7EA",
"8.	c #789CD9",
"9.	c #407303",
"0.	c #497703",
"a.	c #477805",
"b.	c #528309",
"c.	c #99B354",
"d.	c #C7C8B1",
"e.	c #7497E0",
"f.	c #668B3F",
"g.	c #A6B4C1",
"h.	c #6173D0",
"i.	c #6782DA",
"j.	c #6B95E8",
"k.	c #647BD5",
"l.	c #6988DD",
"m.	c #427503",
"n.	c #4D7B03",
"o.	c #7CA43C",
"p.	c #C6D1CF",
"q.	c #9BAFD1",
"r.	c #8191A2",
"s.	c #6388AF",
"t.	c #667DD7",
"u.	c #6171CD",
"v.	c #6483DB",
"w.	c #6C8BDE",
"x.	c #3D7103",
"y.	c #3A6F03",
"z.	c #417403",
"A.	c #4C7903",
"B.	c #6B932B",
"C.	c #D6D1BB",
"D.	c #B5C3D8",
"E.	c #6B8CE0",
"F.	c #657DD6",
"G.	c #6377D1",
"H.	c #606FCD",
"I.	c #6274D1",
"J.	c #5E6CCB",
"K.	c #687AD2",
"L.	c #467403",
"M.	c #4A7A03",
"N.	c #447703",
"O.	c #4C7A06",
"P.	c #548310",
"Q.	c #B2C889",
"R.	c #BEC3C5",
"S.	c #6D89DA",
"T.	c #657CD5",
"U.	c #6579D3",
"V.	c #6072CF",
"W.	c #5C66C7",
"X.	c #5861C4",
"Y.	c #6674CE",
"Z.	c #487703",
"`.	c #3E7303",
" +	c #6A9041",
".+	c #4B7D11",
"++	c #B7BE65",
"@+	c #C0C69E",
"#+	c #7BA4F1",
"$+	c #647DD6",
"%+	c #5E6BCA",
"&+	c #5962C5",
"*+	c #5A64C5",
"=+	c #555DC0",
"-+	c #5D65C5",
";+	c #4A790B",
">+	c #55830B",
",+	c #55820B",
"'+	c #4B7A0B",
")+	c #40730B",
"!+	c #6D942E",
"~+	c #DFC88E",
"{+	c #D7CBAD",
"]+	c #86A8DE",
"^+	c #6D8ADE",
"/+	c #6B87DB",
"(+	c #6271C8",
"_+	c #5F6BC6",
":+	c #5961C1",
"<+	c #5C64C1",
"  . + @ # $ % & * = - ; # > , ' ",
") ! ~ { { ] , ^ / ( _ : < [ + } ",
"| 1 2 3 ^ 4 ! 5 6 7 8 9 0 # a b ",
"c 0 d e a f ! g h i j k ~ l e m ",
"  n o p q r c ~ s   ! t u v 6 w ",
"x y 4 z A B C D E F G h H I l J ",
") K y L > M N O P Q R S T U q V ",
"a W X + Y Z `  ...+.@.#.$.%.&.*.",
": =.-.F ;.>.,.'.).!.~.{.].^./.(.",
"9 _.:.F <.[.}.|.1.2.3.4.5.6.7.8.",
"u 9.0.= a.b.c.d.e.f.g.h.i.j.k.l.",
"W m.{ n.k =.o.p.q.r.s.t.u.i.v.w.",
"x.y.z.{ A.A.B.C.D.E.F.G.H.I.J.K.",
"/ L.M.r N.O.P.Q.R.S.T.U.V.W.X.Y.",
"g < Z.1 `. +.+++@+#+$+%+&+*+=+-+",
";+b >+,+'+)+!+~+{+]+^+/+(+_+:+<+"};
