/* XPM */
static char * top_right_island_xpm[] = {
"16 16 236 2",
"  	c #454B96",
". 	c #454996",
"+ 	c #454A95",
"@ 	c #4A4998",
"# 	c #464996",
"$ 	c #464794",
"% 	c #444C95",
"& 	c #484A97",
"* 	c #474897",
"= 	c #484897",
"- 	c #494999",
"; 	c #494F9A",
"> 	c #4A4697",
", 	c #494595",
"' 	c #454D97",
") 	c #3B4794",
"! 	c #5159BB",
"~ 	c #5156B1",
"{ 	c #5253B0",
"] 	c #5356B1",
"^ 	c #4F4BA1",
"/ 	c #4B4B9A",
"( 	c #484B9B",
"_ 	c #494798",
": 	c #494596",
"< 	c #474994",
"[ 	c #474B96",
"} 	c #474696",
"| 	c #454A97",
"1 	c #484899",
"2 	c #5A64C6",
"3 	c #5A64C7",
"4 	c #5962C7",
"5 	c #5660C3",
"6 	c #565FC2",
"7 	c #555DBF",
"8 	c #5457B2",
"9 	c #4A4CA2",
"0 	c #4B4E9B",
"a 	c #494D98",
"b 	c #484B99",
"c 	c #484D97",
"d 	c #434C96",
"e 	c #484B98",
"f 	c #6272CD",
"g 	c #616FCC",
"h 	c #6B82DA",
"i 	c #8A9FAC",
"j 	c #7C87C2",
"k 	c #6776CC",
"l 	c #5961C5",
"m 	c #575DB8",
"n 	c #4F57B0",
"o 	c #434B94",
"p 	c #464A94",
"q 	c #444A94",
"r 	c #484695",
"s 	c #4D4898",
"t 	c #6782D9",
"u 	c #6C84DB",
"v 	c #86A585",
"w 	c #497614",
"x 	c #A0BAA1",
"y 	c #6D85D9",
"z 	c #657ED7",
"A 	c #606FCC",
"B 	c #5B64C6",
"C 	c #5861C4",
"D 	c #4D51A2",
"E 	c #414791",
"F 	c #454B99",
"G 	c #474996",
"H 	c #454A94",
"I 	c #445094",
"J 	c #6D93EB",
"K 	c #8EB0B7",
"L 	c #5F8729",
"M 	c #537D1C",
"N 	c #99B16B",
"O 	c #A1B7C3",
"P 	c #657DD6",
"Q 	c #5E6ACA",
"R 	c #5C67C8",
"S 	c #5C66C8",
"T 	c #5860C2",
"U 	c #5153AD",
"V 	c #4A4898",
"W 	c #484D98",
"X 	c #474896",
"Y 	c #76A2EB",
"Z 	c #91B3B2",
"` 	c #64892C",
" .	c #407006",
"..	c #849C4C",
"+.	c #C6C687",
"@.	c #7396EB",
"#.	c #5C66C7",
"$.	c #5A63C6",
"%.	c #5B66C8",
"&.	c #4F58B4",
"*.	c #494598",
"=.	c #484997",
"-.	c #A1C2A0",
";.	c #A6C58E",
">.	c #47750C",
",.	c #407003",
"'.	c #4D7E19",
").	c #BBC680",
"!.	c #7191E6",
"~.	c #6174D1",
"{.	c #5F6BCA",
"].	c #5D68C9",
"^.	c #5D6DCC",
"/.	c #5259BB",
"(.	c #4B4699",
"_.	c #464E99",
":.	c #9AB761",
"<.	c #6D9333",
"[.	c #4C7902",
"}.	c #518109",
"|.	c #889C49",
"1.	c #B7B7A2",
"2.	c #698ADF",
"3.	c #6376D2",
"4.	c #6375CF",
"5.	c #6274D0",
"6.	c #6171D0",
"7.	c #606FCE",
"8.	c #5D68C8",
"9.	c #5860C3",
"0.	c #4C4EA0",
"a.	c #464A96",
"b.	c #517F07",
"c.	c #4E7D03",
"d.	c #648D27",
"e.	c #A7AF6C",
"f.	c #C2CE8C",
"g.	c #7E9DCB",
"h.	c #6475D0",
"i.	c #6886DB",
"j.	c #749EF1",
"k.	c #84A9D1",
"l.	c #A2B2B5",
"m.	c #869DCC",
"n.	c #6372CE",
"o.	c #5359B6",
"p.	c #474997",
"q.	c #477403",
"r.	c #4B7A0A",
"s.	c #CDC585",
"t.	c #B4C3A9",
"u.	c #84A7D3",
"v.	c #6D84DC",
"w.	c #95B7BF",
"x.	c #AEC78D",
"y.	c #87AD55",
"z.	c #84A852",
"A.	c #5A8316",
"B.	c #B2BB9E",
"C.	c #6B7BD2",
"D.	c #5E6DCC",
"E.	c #5762C1",
"F.	c #4D52A5",
"G.	c #457402",
"H.	c #7DA346",
"I.	c #CEC392",
"J.	c #93B8D2",
"K.	c #93B7B9",
"L.	c #A4C5A4",
"M.	c #81A349",
"N.	c #5A8615",
"O.	c #5F8324",
"P.	c #608223",
"Q.	c #7B9D43",
"R.	c #D0C987",
"S.	c #7D87BF",
"T.	c #5E6BCC",
"U.	c #5157B6",
"V.	c #447403",
"W.	c #477705",
"X.	c #7FA74D",
"Y.	c #84A64B",
"Z.	c #46770A",
"`.	c #467809",
" +	c #4A7903",
".+	c #648724",
"++	c #5F8928",
"@+	c #799D47",
"#+	c #C7C48E",
"$+	c #92ADD8",
"%+	c #657CD5",
"&+	c #5A62C6",
"*+	c #545CC0",
"=+	c #406E03",
"-+	c #3C7103",
";+	c #477402",
">+	c #487502",
",+	c #487403",
"'+	c #417003",
")+	c #467403",
"!+	c #679130",
"~+	c #CDC283",
"{+	c #BABCAB",
"]+	c #93B1D9",
"^+	c #6983DB",
"/+	c #5B66C7",
"(+	c #565FC1",
"_+	c #497803",
":+	c #487903",
"<+	c #4D7D03",
"[+	c #487703",
"}+	c #447603",
"|+	c #417403",
"1+	c #528013",
"2+	c #C0C285",
"3+	c #BEC591",
"4+	c #82AFF2",
"5+	c #7394ED",
"6+	c #5F6BCB",
"7+	c #545DC0",
"8+	c #4F790B",
"9+	c #507B0B",
"0+	c #4F7C0B",
"a+	c #537D0B",
"b+	c #48790B",
"c+	c #4B7B0B",
"d+	c #769C41",
"e+	c #B9CD95",
"f+	c #ADC6A4",
"g+	c #84B1F5",
"h+	c #7097E8",
"i+	c #6E8EE1",
"j+	c #6A80D6",
"k+	c #6777CF",
"l+	c #5F67C8",
"m+	c #5962C2",
"  . + @ # $ % & * = - ; > , ' ) ",
"! ! ~ { ] ^ / ( _ : < [ } | } 1 ",
"2 2 3 4 5 6 7 8 9 0 a b + c d e ",
"f g h i j k g l m n o p q q r s ",
"t u v w x y z A B C D E F G H I ",
"J K L M N O P Q R S T U V W : X ",
"Y Z `  ...+.@.Q #.$.%.$.&.*.=.& ",
"-.;.>.,.'.).!.2 ~.{.].$.^./.(._.",
":.<.[.}.|.1.2.3.4.5.6.7.8.9.0.a.",
"b.c.d.e.f.g.h.i.j.k.l.m.n.3 o.p.",
"q.r.s.t.u.v.w.x.y.z.A.B.C.D.E.F.",
"G.H.I.J.K.L.M.N.O.P.Q.R.S.T.C U.",
"V.W.X.Y.Z.`. +.+++@+#+$+%+f &+*+",
"=+-+;+>+,+'+)+!+~+{+]+^+Q R /+(+",
"_+:+<+[+}+|+1+2+3+4+5+6+Q {.$.7+",
"8+9+0+a+b+c+d+e+f+g+h+i+j+k+l+m+"};
