/* XPM */
static char * tree_xpm[] = {
"16 16 59 1",
" 	c None",
".	c #225500",
"+	c #000000",
"@	c #002F00",
"#	c #1A9D00",
"$	c #1ACC00",
"%	c #33DD00",
"&	c #009500",
"*	c #338000",
"=	c #33AE00",
"-	c #1ABF00",
";	c #33C400",
">	c #008800",
",	c #006E00",
"'	c #00AE00",
")	c #1AA600",
"!	c #1AB200",
"~	c #00A200",
"{	c #007B00",
"]	c #005100",
"^	c #006200",
"/	c #005500",
"(	c #33AA00",
"_	c #008000",
":	c #004400",
"<	c #004800",
"[	c #1A9900",
"}	c #001E00",
"|	c #003C00",
"1	c #737700",
"2	c #405900",
"3	c #735E00",
"4	c #404000",
"5	c #806A00",
"6	c #000B00",
"7	c #263300",
"8	c #B26E00",
"9	c #664400",
"0	c #D97300",
"a	c #4C2A00",
"b	c #CC6600",
"c	c #8C4800",
"d	c #002200",
"e	c #001100",
"f	c #001A00",
"g	c #803300",
"h	c #B24C00",
"i	c #A64000",
"j	c #734000",
"k	c #663300",
"l	c #804C00",
"m	c #BF7300",
"n	c #E68000",
"o	c #4C1A00",
"p	c #553300",
"q	c #442200",
"r	c #B26600",
"s	c #732600",
"t	c #260D00",
"    ..+@.  +    ",
"  .#$$%&$*=%*+  ",
" .-&;;>,&'&''.  ",
".-)!$~~>%!{,>&= ",
"]>'{^/(/,&'^{!_ ",
":^/<^%~[^<,,^')+",
"}|/^^1234@5<//{:",
"6@<7890ab8cd|ee6",
" +fdg8hcige+e   ",
"   + gbi+       ",
"     jhk        ",
"     lhk        ",
"     mhk        ",
"    +nho        ",
"    p0ho        ",
"   qrhgst       "};
